{
    "subjectItemAttachment": {
        "item": "GIN TANQUERAY London...",
        "totalItems": 2,
        "extraItems": 1
    },
    "cancellationReason": null,
    "recurrence": {
        "clientProfileData": {
            "email": "ml.silva1989@uol.com.br-1b.ct.vtex.com.br",
            "firstName": "Maurício ",
            "lastName": "silva",
            "document": "37769167884",
            "documentType": "cpf",
            "phone": "11973605939",
            "corporateName": null,
            "tradeName": null,
            "corporateDocument": null,
            "stateInscription": null,
            "corporatePhone": null,
            "isCorporate": false,
            "profileCompleteOnLoading": false,
            "profileErrorOnLoading": false,
            "customerClass": null
        }
    },
    "unavailableItems": [
        {
            "id": "35642",
            "productId": "35642",
            "name": "WHISKY JOHNNIE WALKER Black Label 1L",
            "price": 11900,
            "quantity": 1,
            "attachments": [
                {
                    "name": "Recorrência",
                    "content": { "Periodo": "2 semanas" }
                }
            ]
        }
    ],
    "_accountInfo": {
        "HostName": "diageo",
        "MainAccountName": "diageo",
        "IsPersisted": true,
        "IsRemoved": false,
        "Id": "0d19cb38-04bd-4d65-9f74-906c04776cca",
        "Cnpj": "12316059000334",
        "CompanyName": "BRASIL/CT COMÉRCIO E TURISMO S.A.",
        "TradingName": "thebar",
        "AccountName": "diageo",
        "DefaultUrl": null,
        "Address": null,
        "Number": null,
        "Complement": null,
        "District": null,
        "City": null,
        "State": null,
        "PostalCode": null,
        "Country": null,
        "Telephone": "1134050430",
        "IsActive": true,
        "Sponsor": "0a884199-445d-4bc2-8f9c-534b2c196501",
        "Logo": "thebar_logo.png",
        "AppId": null,
        "IsOperating": true,
        "LV": "LV-04776",
        "Sigla": null
    }
}
