{
    "simulatedPurchase": {
        "purchases": [
            {
                "shippingAddress": {
                    "addressType": "residential",
                    "receiverName": "Maurício  silva",
                    "addressId": "f3096124-67a7-480b-cb7d-b62c34a2806a",
                    "isDisposable": false,
                    "postalCode": "04551000",
                    "city": "São Paulo",
                    "state": "SP",
                    "country": "BRA",
                    "street": "Rua Olimpíadas",
                    "number": "205",
                    "neighborhood": "Vila Olímpia",
                    "complement": "",
                    "reference": "",
                    "geoCoordinates": [-46.685123443603516, -23.595565795898438]
                },
                "items": [
                    {
                        "id": "35642",
                        "productId": "35642",
                        "name": "WHISKY JOHNNIE WALKER Black Label 1L",
                        "price": 11900,
                        "quantity": 1,
                        "attachments": [
                            {
                                "name": "Recorrência",
                                "content": { "Periodo": "2 semanas" }
                            }
                        ]
                    }
                ]
            }
        ]
    }
}
