{
    "recurrence": {
        "clientProfileData": {
            "email": "ml.silva1989@uol.com.br-1b.ct.vtex.com.br",
            "firstName": "Maurício ",
            "lastName": "silva",
            "document": "37769167884",
            "documentType": "cpf",
            "phone": "11973605939",
            "corporateName": null,
            "tradeName": null,
            "corporateDocument": null,
            "stateInscription": null,
            "corporatePhone": null,
            "isCorporate": false,
            "profileCompleteOnLoading": false,
            "profileErrorOnLoading": false,
            "customerClass": null
        },
        "items": [
            {
                "id": "35642",
                "productId": "35642",
                "name": "WHISKY JOHNNIE WALKER Black Label 1L",
                "price": 11900,
                "quantity": 1,
                "attachments": [
                    {
                        "name": "Recorrência",
                        "content": { "Periodo": "2 semanas" }
                    }
                ]
            }
        ]
    },
    "orders": [
        {
            "package": null,
            "subjectItemAttachment": {
                "item": "GIN TANQUERAY London...",
                "totalItems": 2,
                "extraItems": 1
            },
            "cancellationReason": null,
            "items": [
                {
                    "additionalInfo": {
                        "dimension": {
                            "cubicweight": 1.6134,
                            "height": 37.6,
                            "length": 27.1,
                            "weight": 1270,
                            "width": 7.6
                        },
                        "categoriesIds": "/27/6/",
                        "productClusterId": "138,140,143,149,151,152,155,156,157,160,161,163,164,170,171,173,176,190,191,192,195,199,202,203,204",
                        "commercialConditionId": "1",
                        "brandName": "Tanqueray",
                        "brandId": "2000368",
                        "offeringInfo": null,
                        "offeringType": null,
                        "offeringTypeId": null
                    },
                    "sellerSku": "35674",
                    "priceTable": null,
                    "priceValidUntil": "2050-12-31T23:59:59Z",
                    "callCenterOperator": "93275b75-a4f5-4662-9186-f35f616fb99d",
                    "commission": 0,
                    "freightCommission": 0,
                    "taxCode": "",
                    "costPrice": null,
                    "uniqueId": "2A9DD0BBFEB54C13B818F90FCD6BAADB",
                    "id": "35674",
                    "productId": "35674",
                    "refId": "GRE30291",
                    "ean": "5000291020706",
                    "name": "GIN TANQUERAY London Dry 750ml",
                    "skuName": "GIN TANQUERAY London Dry 750ml",
                    "modalType": null,
                    "parentItemIndex": null,
                    "parentAssemblyBinding": null,
                    "assemblies": [],
                    "tax": 0,
                    "priceDefinitions": null,
                    "price": 10900,
                    "listPrice": 10900,
                    "manualPrice": null,
                    "sellingPrice": 10900,
                    "orderRewardStatus": null,
                    "rewardValue": 0,
                    "isGift": false,
                    "preSaleDate": null,
                    "productCategoryIds": "/27/6/",
                    "productCategories": {
                        "6": "Gin",
                        "27": "Bebidas"
                    },
                    "quantity": 1,
                    "seller": "1",
                    "sellerChain": ["1"],
                    "imageUrl": "http://diageo.vteximg.com.br/arquivos/ids/157112-55-55/GRE30291-1.jpg?v=636983638049000000",
                    "detailUrl": "/gin-tanqueray--750ml-gre30291/p",
                    "components": [],
                    "bundleItems": [],
                    "attachments": [],
                    "attachmentOfferings": [],
                    "offerings": [],
                    "priceTags": [],
                    "availability": "available",
                    "measurementUnit": "un",
                    "unitMultiplier": 1
                },
                {
                    "additionalInfo": {
                        "dimension": {
                            "cubicweight": 1.4557,
                            "height": 31.9,
                            "length": 29.6,
                            "weight": 1100,
                            "width": 7.4
                        },
                        "categoriesIds": "/27/2/14/",
                        "productClusterId": "137,145,149,151,155,171,173,183,188,190,192,195,201",
                        "commercialConditionId": "1",
                        "brandName": "Johnnie Walker",
                        "brandId": "2000361",
                        "offeringInfo": null,
                        "offeringType": null,
                        "offeringTypeId": null
                    },
                    "sellerSku": "35657",
                    "priceTable": null,
                    "priceValidUntil": "2050-12-31T23:59:59Z",
                    "callCenterOperator": "93275b75-a4f5-4662-9186-f35f616fb99d",
                    "commission": 0,
                    "freightCommission": 0,
                    "taxCode": "",
                    "costPrice": null,
                    "uniqueId": "8DBD74D49FE84DDEAE6D6F3A659CD00D",
                    "id": "35657",
                    "productId": "35657",
                    "refId": "GRE30273",
                    "ean": "5000267167947",
                    "name": "WHISKY JOHNNIE WALKER Wine Cask Blend 750ml",
                    "skuName": "WHISKY JOHNNIE WALKER Wine Cask Blend 750ml",
                    "modalType": null,
                    "parentItemIndex": null,
                    "parentAssemblyBinding": null,
                    "assemblies": [],
                    "tax": 0,
                    "priceDefinitions": null,
                    "price": 7990,
                    "listPrice": 7990,
                    "manualPrice": null,
                    "sellingPrice": 7990,
                    "orderRewardStatus": null,
                    "rewardValue": 0,
                    "isGift": false,
                    "preSaleDate": null,
                    "productCategoryIds": "/27/2/14/",
                    "productCategories": {
                        "2": "Whisky",
                        "14": "Blended",
                        "27": "Bebidas"
                    },
                    "quantity": 1,
                    "seller": "1",
                    "sellerChain": ["1"],
                    "imageUrl": "http://diageo.vteximg.com.br/arquivos/ids/157407-55-55/GRE30273-1.jpg?v=636988749055970000",
                    "detailUrl": "/whisky-johnnie-walker-wine-cask--750ml-gre30273/p",
                    "components": [],
                    "bundleItems": [],
                    "attachments": [
                        {
                            "name": "Recorrência",
                            "content": { "Periodo": "2 semanas" }
                        }
                    ],
                    "attachmentOfferings": [],
                    "offerings": [],
                    "priceTags": [],
                    "availability": "available",
                    "measurementUnit": "un",
                    "unitMultiplier": 1
                }
            ],
            "sellers": [
                {
                    "subSellerId": "1",
                    "fulfillmentEndpoint": "http://fulfillment.vtexcommerce.com.br/api/fulfillment?sc=3&an=diageo",
                    "id": "1",
                    "name": "thebar",
                    "logo": ""
                }
            ],
            "giftRegistryData": null,
            "receiptData": null,
            "contextData": null,
            "marketPlaceOrderId": "",
            "marketPlaceOrderGroup": null,
            "marketplaceServicesEndpoint": null,
            "orderFormId": "25019b68ba354d6588f2bee8f7054c25",
            "sequence": "574636",
            "affiliateId": "",
            "status": "",
            "callCenterOperator": "93275b75-a4f5-4662-9186-f35f616fb99d",
            "userProfileId": "365fec3a-baf7-4506-90da-40655be628ca",
            "hostName": "diageo",
            "creationVersion": null,
            "creationEnvironment": null,
            "lastChangeVersion": null,
            "workflowInstanceId": null,
            "marketplacePaymentValue": null,
            "orderId": "950623557813-01",
            "orderGroup": "950623557813",
            "state": "payment-pending",
            "isCheckedIn": false,
            "sellerOrderId": "00-950623557813-01",
            "storeId": null,
            "checkedInPickupPointId": null,
            "value": 18890,
            "totals": [
                {
                    "id": "Items",
                    "name": "Total dos Itens",
                    "value": 18890
                },
                {
                    "id": "Discounts",
                    "name": "Total dos Descontos",
                    "value": 0
                },
                {
                    "id": "Shipping",
                    "name": "Total do Frete",
                    "value": 0
                },
                {
                    "id": "Tax",
                    "name": "Total da Taxa",
                    "value": 0
                }
            ],
            "clientProfileData": {
                "email": "ml.silva1989@uol.com.br-1b.ct.vtex.com.br",
                "firstName": "Maurício ",
                "lastName": "silva",
                "document": "37769167884",
                "documentType": "cpf",
                "phone": "11973605939",
                "corporateName": null,
                "tradeName": null,
                "corporateDocument": null,
                "stateInscription": null,
                "corporatePhone": null,
                "isCorporate": false,
                "profileCompleteOnLoading": false,
                "profileErrorOnLoading": false,
                "customerClass": null
            },
            "ratesAndBenefitsData": {
                "rateAndBenefitsIdentifiers": [],
                "teaser": []
            },
            "shippingData": {
                "address": {
                    "addressType": "residential",
                    "receiverName": "Maurício  silva",
                    "addressId": "f3096124-67a7-480b-cb7d-b62c34a2806a",
                    "isDisposable": false,
                    "postalCode": "04551000",
                    "city": "São Paulo",
                    "state": "SP",
                    "country": "BRA",
                    "street": "Rua Olimpíadas",
                    "number": "205",
                    "neighborhood": "Vila Olímpia",
                    "complement": "",
                    "reference": "",
                    "geoCoordinates": [-46.685123443603516, -23.595565795898438]
                },
                "logisticsInfo": [
                    {
                        "itemIndex": 0,
                        "selectedSla": "Normal",
                        "selectedDeliveryChannel": "delivery",
                        "addressId": "f3096124-67a7-480b-cb7d-b62c34a2806a",
                        "slas": [
                            {
                                "id": "Normal",
                                "deliveryChannel": "delivery",
                                "name": "Normal",
                                "deliveryIds": [
                                    {
                                        "courierId": "1",
                                        "warehouseId": "19f070c",
                                        "dockId": "13ff718",
                                        "courierName": "Transportadora",
                                        "quantity": 1,
                                        "totalListPrice": 0
                                    }
                                ],
                                "shippingEstimate": "0bd",
                                "shippingEstimateDate": null,
                                "lockTTL": "10d",
                                "availableDeliveryWindows": [],
                                "deliveryWindow": null,
                                "price": 0,
                                "listPrice": 0,
                                "tax": 0,
                                "pickupStoreInfo": {
                                    "isPickupStore": false,
                                    "friendlyName": null,
                                    "address": null,
                                    "additionalInfo": null,
                                    "dockId": null
                                },
                                "pickupPointId": null,
                                "pickupDistance": 0,
                                "polygonName": null
                            }
                        ],
                        "shipsTo": ["BRA"],
                        "itemId": "35674",
                        "deliveryChannels": [
                            {
                                "id": "delivery",
                                "stockBalance": 0
                            }
                        ]
                    },
                    {
                        "itemIndex": 1,
                        "selectedSla": "Normal",
                        "selectedDeliveryChannel": "delivery",
                        "addressId": "f3096124-67a7-480b-cb7d-b62c34a2806a",
                        "slas": [
                            {
                                "id": "Normal",
                                "deliveryChannel": "delivery",
                                "name": "Normal",
                                "deliveryIds": [
                                    {
                                        "courierId": "1",
                                        "warehouseId": "19f070c",
                                        "dockId": "13ff718",
                                        "courierName": "Transportadora",
                                        "quantity": 1,
                                        "totalListPrice": 0
                                    }
                                ],
                                "shippingEstimate": "0bd",
                                "shippingEstimateDate": null,
                                "lockTTL": "10d",
                                "availableDeliveryWindows": [],
                                "deliveryWindow": null,
                                "price": 0,
                                "listPrice": 0,
                                "tax": 0,
                                "pickupStoreInfo": {
                                    "isPickupStore": false,
                                    "friendlyName": null,
                                    "address": null,
                                    "additionalInfo": null,
                                    "dockId": null
                                },
                                "pickupPointId": null,
                                "pickupDistance": 0,
                                "polygonName": null
                            }
                        ],
                        "shipsTo": ["BRA"],
                        "itemId": "35657",
                        "deliveryChannels": [
                            {
                                "id": "delivery",
                                "stockBalance": 0
                            }
                        ]
                    }
                ],
                "selectedAddresses": [
                    {
                        "addressType": "residential",
                        "receiverName": "Maurício  silva",
                        "addressId": "f3096124-67a7-480b-cb7d-b62c34a2806a",
                        "isDisposable": false,
                        "postalCode": "04551000",
                        "city": "São Paulo",
                        "state": "SP",
                        "country": "BRA",
                        "street": "Rua Olimpíadas",
                        "number": "205",
                        "neighborhood": "Vila Olímpia",
                        "complement": "",
                        "reference": "",
                        "geoCoordinates": [
                            -46.685123443603516,
                            -23.595565795898438
                        ]
                    }
                ],
                "availableAddresses": [
                    {
                        "addressType": "residential",
                        "receiverName": "Maurício  silva",
                        "addressId": "f3096124-67a7-480b-cb7d-b62c34a2806a",
                        "isDisposable": false,
                        "postalCode": "04551000",
                        "city": "São Paulo",
                        "state": "SP",
                        "country": "BRA",
                        "street": "Rua Olimpíadas",
                        "number": "205",
                        "neighborhood": "Vila Olímpia",
                        "complement": "",
                        "reference": "",
                        "geoCoordinates": [
                            -46.685123443603516,
                            -23.595565795898438
                        ]
                    }
                ],
                "pickupPoints": []
            },
            "paymentData": {
                "giftCards": [],
                "transactions": [
                    {
                        "isActive": true,
                        "transactionId": "22CAFE1039F847909E2F9D9855F9B096",
                        "merchantName": "DIAGEO",
                        "payments": [
                            {
                                "id": "1366A60F7C18421AB75B60162AF81FA2",
                                "paymentSystem": "44",
                                "paymentSystemName": "Venda Direta Debito",
                                "value": 18890,
                                "installments": 1,
                                "connectorResponses": {
                                    "tid": "07001701032",
                                    "nsu": "503534788",
                                    "authorizationCode": "005764",
                                    "firstDigits": "515590",
                                    "lastDigits": "0260",
                                    "inStoreCustomerReceipt": "               BRASILCT\n          12.316.059/0004-15\n\n           **VIA CLIENTE**\n               REDECARD\n       MAESTRO - DEBITO A VISTA\n         **** **** **** 0260\n        ESTAB 061751082122016\n          30/07/19 19:01:05\n        AUT= 005764 DOC= 1107\n          NSU HOST 503534788\n            VALOR= 188,90\n        CONTROLE= 07001701032\n            CAPPTA CARTOES",
                                    "inStoreMerchantReceipt": "               BRASILCT\n          12.316.059/0004-15\n\n           **VIA LOJISTA**\n               REDECARD\n       MAESTRO - DEBITO A VISTA\n         **** **** **** 0260\n        ESTAB 061751082122016\n          30/07/19 19:01:05\n        AUT= 005764 DOC= 1107\n          NSU HOST 503534788\n            VALOR= 188,90\n        CONTROLE= 07001701032\n            CAPPTA CARTOES",
                                    "inStoreBrand": "MAESTRO",
                                    "brand": "MAESTRO",
                                    "inStoreAcquirer": "Redecard",
                                    "acquirer": "Redecard"
                                },
                                "referenceValue": 18890,
                                "cardHolder": null,
                                "cardNumber": null,
                                "firstDigits": null,
                                "lastDigits": null,
                                "cvv2": null,
                                "expireMonth": null,
                                "expireYear": null,
                                "url": null,
                                "koinUrl": null,
                                "tid": "07001701032",
                                "redemptionCode": null,
                                "giftCardId": null,
                                "giftCardProvider": null,
                                "giftCardAsDiscount": null,
                                "group": "debitDirectSale",
                                "dueDate": null,
                                "accountId": null,
                                "parentAccountId": null,
                                "bankIssuedInvoiceIdentificationNumber": null,
                                "bankIssuedInvoiceIdentificationNumberFormatted": null,
                                "bankIssuedInvoiceBarCodeNumber": null,
                                "bankIssuedInvoiceBarCodeType": null
                            }
                        ],
                        "sharedTransaction": false
                    }
                ]
            },
            "clientPreferencesData": {
                "locale": "pt-BR",
                "optinNewsLetter": false
            },
            "commercialConditionData": null,
            "marketingData": {
                "utmSource": "a565ed18-a726-11e9-82b1-12d9eeacfdb6",
                "utmMedium": null,
                "utmCampaign": null,
                "utmipage": null,
                "utmiPart": null,
                "utmiCampaign": null,
                "coupon": null,
                "marketingTags": ["instore"]
            },
            "storePreferencesData": {
                "countryCode": "BRA",
                "saveUserData": false,
                "timeZone": "E. South America Standard Time",
                "currencyCode": "BRL",
                "currencyLocale": 1046,
                "currencySymbol": "R$",
                "currencyFormatInfo": {
                    "currencyDecimalDigits": 2,
                    "currencyDecimalSeparator": ",",
                    "currencyGroupSeparator": ".",
                    "currencyGroupSize": 3,
                    "startsWithCurrencySymbol": true
                }
            },
            "openTextField": null,
            "invoiceData": null,
            "itemMetadata": null,
            "taxData": null,
            "customData": null,
            "hooksData": null,
            "changeData": null,
            "subscriptionData": null,
            "salesChannel": "3",
            "followUpEmail": "c21afecd70054be48e60de4c7781c3ed@ct.vtex.com.br",
            "creationDate": "2019-07-30T22:00:24.4406013Z",
            "lastChange": "2019-07-30T22:01:20.9535553Z",
            "timeZoneCreationDate": "2019-07-30T19:00:24.4406013",
            "timeZoneLastChange": "2019-07-30T19:01:20.9535553",
            "isCompleted": true,
            "merchantName": null,
            "userType": "callCenterOperator",
            "roundingError": 0,
            "allowEdition": false,
            "allowCancellation": false,
            "isUserDataVisible": false,
            "allowChangeSeller": false
        }
    ],
    "ordersUrl": "http://diageo.myvtex.com/account/orders",
    "orderGroup": "950623557813",
    "subjectItemAttachment": {
        "item": "GIN TANQUERAY London...",
        "totalItems": 2,
        "extraItems": 1
    },
    "split": false,
    "totalValue": 18890,
    "callCenterOperatorData": {
        "email": "vendedordiageo1@gmail.com",
        "userName": "Vendedor Diageo 1"
    },
    "_accountInfo": {
        "HostName": "diageo",
        "MainAccountName": "diageo",
        "IsPersisted": true,
        "IsRemoved": false,
        "Id": "0d19cb38-04bd-4d65-9f74-906c04776cca",
        "Cnpj": "12316059000334",
        "CompanyName": "BRASIL/CT COMÉRCIO E TURISMO S.A.",
        "TradingName": "thebar",
        "AccountName": "diageo",
        "DefaultUrl": null,
        "Address": null,
        "Number": null,
        "Complement": null,
        "District": null,
        "City": null,
        "State": null,
        "PostalCode": null,
        "Country": null,
        "Telephone": "1134050430",
        "IsActive": true,
        "Sponsor": "0a884199-445d-4bc2-8f9c-534b2c196501",
        "Logo": "thebar_logo.png",
        "AppId": null,
        "IsOperating": true,
        "LV": "LV-04776",
        "Sigla": null
    }
}
